{
"type": "FeatureCollection",
"features": [
{ "type": "Feature", "properties": { "image": "DSC00299", "plot_label": "FPWW0250018", "type": "canopy", "world_x": 2693791.9996677097, "world_y": 1256288.3738413074, "world_z": 556.87723462334998, "azimuth_angle": 4.3634573410238087, "zenith_angle": 2.8438665206973175 }, "geometry": { "type": "Polygon", "coordinates": [ [ [ 5426.393691527449846, 3095.390687670701482 ], [ 4772.734198049714905, 3069.356756133839554 ], [ 4750.785217029492742, 3561.776367925175691 ], [ 5404.007618552075655, 3587.308244221001132 ], [ 5426.393691527449846, 3095.390687670701482 ] ] ] } },
{ "type": "Feature", "properties": { "image": "DSC00299", "plot_label": "FPWW0250018", "type": "soil", "world_x": 2693791.9996677097, "world_y": 1256288.3738413074, "world_z": 556.74832837334998, "azimuth_angle": 4.3634573410238087, "zenith_angle": 2.8451517571884755 }, "geometry": { "type": "Polygon", "coordinates": [ [ [ 5414.577931653210726, 3089.077967630420972 ], [ 4763.857980709785807, 3063.151845934628909 ], [ 4742.018384432651146, 3553.351155882656258 ], [ 5392.306003414393672, 3578.781159356835815 ], [ 5414.577931653210726, 3089.077967630420972 ] ] ] } }
]
}
