{
"type": "FeatureCollection",
"features": [
{ "type": "Feature", "properties": { "image": "DSC00292", "plot_label": "FPWW0250012", "type": "canopy", "world_x": 2693782.5023645232, "world_y": 1256295.9434409291, "world_z": 557.23527639883537, "azimuth_angle": 4.3123222880337737, "zenith_angle": 2.8201095631158974 }, "geometry": { "type": "Polygon", "coordinates": [ [ [ 5719.339309690132723, 3094.289860224323547 ], [ 5052.928413134929542, 3065.044813102493208 ], [ 5031.97664601131055, 3563.483472785595495 ], [ 5698.999944121034787, 3593.831187784793201 ], [ 5719.339309690132723, 3094.289860224323547 ] ] ] } },
{ "type": "Feature", "properties": { "image": "DSC00292", "plot_label": "FPWW0250012", "type": "soil", "world_x": 2693782.5023645232, "world_y": 1256295.9434409291, "world_z": 557.18272512930412, "azimuth_angle": 4.3123222880337737, "zenith_angle": 2.8206775699541606 }, "geometry": { "type": "Polygon", "coordinates": [ [ [ 5713.94957528987652, 3091.687514236873994 ], [ 5048.786643454102887, 3062.498671183397164 ], [ 5027.87635406515983, 3560.007596287481192 ], [ 5693.649780655777249, 3590.295686372512137 ], [ 5713.94957528987652, 3091.687514236873994 ] ] ] } },
{ "type": "Feature", "properties": { "image": "DSC00292", "plot_label": "FPWW0250013", "type": "canopy", "world_x": 2693784.105967585, "world_y": 1256294.6839379147, "world_z": 557.15943894692521, "azimuth_angle": 4.4441958768968277, "zenith_angle": 2.8776988631631735 }, "geometry": { "type": "Polygon", "coordinates": [ [ [ 5048.989216416112868, 3069.105980288970841 ], [ 4382.875869181410962, 3039.119631196920182 ], [ 4362.669820716258073, 3537.518861374998778 ], [ 5027.647319704376059, 3567.415344741491481 ], [ 5048.989216416112868, 3069.105980288970841 ] ] ] } },
{ "type": "Feature", "properties": { "image": "DSC00292", "plot_label": "FPWW0250013", "type": "soil", "world_x": 2693784.105967585, "world_y": 1256294.6839379147, "world_z": 557.09779343911259, "azimuth_angle": 4.4441958768968277, "zenith_angle": 2.8782568088535121 }, "geometry": { "type": "Polygon", "coordinates": [ [ [ 5044.138973096478367, 3066.110093110399703 ], [ 4379.490500056041128, 3036.19352420032601 ], [ 4359.329392757529604, 3533.502050336931916 ], [ 5022.847423845814774, 3563.329749899509352 ], [ 5044.138973096478367, 3066.110093110399703 ] ] ] } },
{ "type": "Feature", "properties": { "image": "DSC00292", "plot_label": "FPWW0250014", "type": "canopy", "world_x": 2693785.5875506843, "world_y": 1256293.4592750499, "world_z": 557.09101433710225, "azimuth_angle": 4.6283275689192918, "zenith_angle": 2.9282304914408401 }, "geometry": { "type": "Polygon", "coordinates": [ [ [ 4405.229614702107028, 3028.92211923929608 ], [ 3741.758055637642428, 2999.996859128915276 ], [ 3721.523051361187754, 3498.113463019630672 ], [ 4384.44329842177649, 3526.891834132384247 ], [ 4405.229614702107028, 3028.92211923929608 ] ] ] } },
{ "type": "Feature", "properties": { "image": "DSC00292", "plot_label": "FPWW0250014", "type": "soil", "world_x": 2693785.5875506843, "world_y": 1256293.4592750499, "world_z": 557.0249132628835, "azimuth_angle": 4.6283275689192918, "zenith_angle": 2.9287208616091158 }, "geometry": { "type": "Polygon", "coordinates": [ [ [ 4401.545870581615418, 3025.807447035649602 ], [ 3739.63439407755186, 2996.95263816777242 ], [ 3719.447250516397617, 3493.900773239814043 ], [ 4380.81046314260675, 3522.609814745126187 ], [ 4401.545870581615418, 3025.807447035649602 ] ] ] } },
{ "type": "Feature", "properties": { "image": "DSC00292", "plot_label": "FPWW0250015", "type": "canopy", "world_x": 2693787.190407631, "world_y": 1256292.1930621471, "world_z": 557.03454731785973, "azimuth_angle": 4.9396010941585224, "zenith_angle": 2.9687911338825801 }, "geometry": { "type": "Polygon", "coordinates": [ [ [ 3736.112975870064474, 3002.387016959960874 ], [ 3073.86403332514692, 2973.564724246048172 ], [ 3053.510147593579859, 3470.69855247329906 ], [ 3716.022387680258817, 3500.999781163273838 ], [ 3736.112975870064474, 3002.387016959960874 ] ] ] } },
{ "type": "Feature", "properties": { "image": "DSC00292", "plot_label": "FPWW0250015", "type": "soil", "world_x": 2693787.190407631, "world_y": 1256292.1930621471, "world_z": 556.95428608739098, "azimuth_angle": 4.9396010941585224, "zenith_angle": 2.9692772335532887 }, "geometry": { "type": "Polygon", "coordinates": [ [ [ 3733.550813364286114, 2998.684345144316012 ], [ 3073.189686283693391, 2969.94767055131797 ], [ 3052.893989461968886, 3465.668753661951087 ], [ 3713.51748446326792, 3495.876225431154126 ], [ 3733.550813364286114, 2998.684345144316012 ] ] ] } },
{ "type": "Feature", "properties": { "image": "DSC00292", "plot_label": "FPWW0250016", "type": "canopy", "world_x": 2693788.7050630818, "world_y": 1256290.9147874704, "world_z": 556.95773995205127, "azimuth_angle": 5.3582596882960773, "zenith_angle": 2.9876918582430321 }, "geometry": { "type": "Polygon", "coordinates": [ [ [ 3077.523289883253256, 2958.046234979688052 ], [ 2416.874334367108531, 2929.70615704915781 ], [ 2396.99002789362612, 3425.191897926628826 ], [ 3057.207618974357956, 3455.244517619647013 ], [ 3077.523289883253256, 2958.046234979688052 ] ] ] } },
{ "type": "Feature", "properties": { "image": "DSC00292", "plot_label": "FPWW0250016", "type": "soil", "world_x": 2693788.7050630818, "world_y": 1256290.9147874704, "world_z": 556.88217842861377, "azimuth_angle": 5.3582596882960773, "zenith_angle": 2.9881000711199164 }, "geometry": { "type": "Polygon", "coordinates": [ [ [ 3076.878759427835121, 2954.683284063755309 ], [ 2417.99921236249611, 2926.421849687322265 ], [ 2398.166657658744498, 3420.586101296021752 ], [ 3056.617676043468236, 3450.550940507219821 ], [ 3076.878759427835121, 2954.683284063755309 ] ] ] } },
{ "type": "Feature", "properties": { "image": "DSC00292", "plot_label": "FPWW0250021", "type": "canopy", "world_x": 2693789.5441663815, "world_y": 1256292.3309608847, "world_z": 557.00891377375672, "azimuth_angle": 5.3277552434251723, "zenith_angle": 2.9306603673334637 }, "geometry": { "type": "Polygon", "coordinates": [ [ [ 3134.311898319451757, 3469.956271502952859 ], [ 2474.154156725524444, 3439.265572229589452 ], [ 2453.870990691058978, 3935.942720766024195 ], [ 3113.800183426723834, 3965.337869444752869 ], [ 3134.311898319451757, 3469.956271502952859 ] ] ] } },
{ "type": "Feature", "properties": { "image": "DSC00292", "plot_label": "FPWW0250021", "type": "soil", "world_x": 2693789.5441663815, "world_y": 1256292.3309608847, "world_z": 556.94989277766297, "azimuth_angle": 5.3277552434251723, "zenith_angle": 2.9310923612613777 }, "geometry": { "type": "Polygon", "coordinates": [ [ [ 3133.689470077183159, 3466.257548693253284 ], [ 2474.912146512643176, 3435.638043313206708 ], [ 2454.671032075178118, 3931.278510563266082 ], [ 3113.221319607023361, 3960.607920308685152 ], [ 3133.689470077183159, 3466.257548693253284 ] ] ] } },
{ "type": "Feature", "properties": { "image": "DSC00292", "plot_label": "FPWW0250017", "type": "canopy", "world_x": 2693790.3860223191, "world_y": 1256289.6435711042, "world_z": 556.90353321238149, "azimuth_angle": 5.8107847018272194, "zenith_angle": 2.9712394301426217 }, "geometry": { "type": "Polygon", "coordinates": [ [ [ 2400.902433547326837, 2949.376824567266794 ], [ 1742.808750060089324, 2919.01260984763303 ], [ 1723.539265026357043, 3413.610276511419215 ], [ 2381.01234280534527, 3445.206741460198828 ], [ 2400.902433547326837, 2949.376824567266794 ] ] ] } },
{ "type": "Feature", "properties": { "image": "DSC00292", "plot_label": "FPWW0250017", "type": "soil", "world_x": 2693790.3860223191, "world_y": 1256289.6435711042, "world_z": 556.81295704050649, "azimuth_angle": 5.8107847018272194, "zenith_angle": 2.9717778187556338 }, "geometry": { "type": "Polygon", "coordinates": [ [ [ 2402.302267918848884, 2945.37624678281918 ], [ 1746.311408567437184, 2915.119898090247716 ], [ 1727.09933618669038, 3408.140309564645577 ], [ 2382.47419285771457, 3439.620787171597385 ], [ 2402.302267918848884, 2945.37624678281918 ] ] ] } },
{ "type": "Feature", "properties": { "image": "DSC00292", "plot_label": "FPWW0250018", "type": "canopy", "world_x": 2693791.9996677097, "world_y": 1256288.3738413074, "world_z": 556.87723462334998, "azimuth_angle": 6.1280668414156043, "zenith_angle": 2.9316041275050568 }, "geometry": { "type": "Polygon", "coordinates": [ [ [ 1740.902582269609411, 2923.422045540405179 ], [ 1080.928981848225476, 2896.175990006402571 ], [ 1062.171702468485364, 3391.469410640796923 ], [ 1721.542372624230893, 3418.785476363340422 ], [ 1740.902582269609411, 2923.422045540405179 ] ] ] } },
{ "type": "Feature", "properties": { "image": "DSC00292", "plot_label": "FPWW0250018", "type": "soil", "world_x": 2693791.9996677097, "world_y": 1256288.3738413074, "world_z": 556.74832837334998, "azimuth_angle": 6.1280668414156043, "zenith_angle": 2.9325370423288231 }, "geometry": { "type": "Polygon", "coordinates": [ [ [ 1745.896113557316539, 2917.861995907540404 ], [ 1088.925675732915124, 2890.741803883539887 ], [ 1070.244385981457754, 3383.788042417436372 ], [ 1726.618311777640884, 3410.976817584323726 ], [ 1745.896113557316539, 2917.861995907540404 ] ] ] } },
{ "type": "Feature", "properties": { "image": "DSC00292", "plot_label": "FPWW0250019", "type": "canopy", "world_x": 2693792.6924383589, "world_y": 1256289.7926877791, "world_z": 556.90952992662096, "azimuth_angle": 5.9420804684519055, "zenith_angle": 2.8966669234264657 }, "geometry": { "type": "Polygon", "coordinates": [ [ [ 1830.313896608958203, 3402.812963374837182 ], [ 1171.953241785570981, 3374.583939722130708 ], [ 1152.885137668233483, 3869.082984120568653 ], [ 1810.545139118324641, 3898.119600365714632 ], [ 1830.313896608958203, 3402.812963374837182 ] ] ] } },
{ "type": "Feature", "properties": { "image": "DSC00292", "plot_label": "FPWW0250019", "type": "soil", "world_x": 2693792.6924383589, "world_y": 1256289.7926877791, "world_z": 556.79624867662096, "azimuth_angle": 5.9420804684519055, "zenith_angle": 2.8976145863546821 }, "geometry": { "type": "Polygon", "coordinates": [ [ [ 1834.341337667453899, 3396.011827752795398 ], [ 1178.608092913456176, 3367.901796310694408 ], [ 1159.608746935487943, 3860.433117136542933 ], [ 1814.647996788950422, 3889.343686946452181 ], [ 1834.341337667453899, 3396.011827752795398 ] ] ] } },
{ "type": "Feature", "properties": { "image": "DSC00292", "plot_label": "FPWW0250020", "type": "canopy", "world_x": 2693791.0903642573, "world_y": 1256291.094537233, "world_z": 556.96172630673368, "azimuth_angle": 5.6530294667689285, "zenith_angle": 2.9239297117603531 }, "geometry": { "type": "Polygon", "coordinates": [ [ [ 2498.284928657975343, 3438.258707986643458 ], [ 1840.013941087481271, 3407.321744003171261 ], [ 1820.274795115112056, 3902.249371589215571 ], [ 2478.031352236589555, 3935.251555513467792 ], [ 2498.284928657975343, 3438.258707986643458 ] ] ] } },
{ "type": "Feature", "properties": { "image": "DSC00292", "plot_label": "FPWW0250020", "type": "soil", "world_x": 2693791.0903642573, "world_y": 1256291.094537233, "world_z": 556.86889183407743, "azimuth_angle": 5.6530294667689285, "zenith_angle": 2.9246275379705469 }, "geometry": { "type": "Polygon", "coordinates": [ [ [ 2499.397991098168859, 3432.555687461298021 ], [ 1843.282814544064649, 3401.733107399662003 ], [ 1823.605334589501581, 3895.043717290665427 ], [ 2479.210318233081125, 3927.917799165626093 ], [ 2499.397991098168859, 3432.555687461298021 ] ] ] } }
]
}
