,"plot_label","timestamp","trait","value"
0,"FPWW0240060_16","2019-02-13T13:30:18+00:00","plant_density",2
0,"FPWW0240060_17","2019-02-13T13:30:24+00:00","plant_density",1
0,"FPWW0240060_18","2019-02-13T13:30:38+00:00","plant_density",4
0,"FPWW0240060_19","2019-02-13T13:30:57+00:00","plant_density",2
0,"FPWW0240060_20","2019-02-13T13:31:00+00:00","plant_density",5
0,"FPWW0240060_1","2019-02-13T13:28:13+00:00","plant_density",3
0,"FPWW0240059_2","2019-02-13T13:32:13+00:00","plant_density",2
0,"FPWW0240059_3","2019-02-13T13:32:20+00:00","plant_density",1
0,"FPWW0240059_4","2019-02-13T13:32:25+00:00","plant_density",2
0,"FPWW0240059_5","2019-02-13T13:32:40+00:00","plant_density",2
0,"FPWW0240059_6","2019-02-13T13:32:57+00:00","plant_density",3
0,"FPWW0240059_7","2019-02-13T13:33:11+00:00","plant_density",4
0,"FPWW0240059_8","2019-02-13T13:33:26+00:00","plant_density",5
0,"FPWW0240059_9","2019-02-13T13:33:34+00:00","plant_density",2
0,"FPWW0240059_10","2019-02-13T13:33:39+00:00","plant_density",1
0,"FPWW0240059_11","2019-02-13T13:34:29+00:00","plant_density",5
0,"FPWW0240059_12","2019-02-13T13:34:37+00:00","plant_density",3
0,"FPWW0240059_13","2019-02-13T13:34:45+00:00","plant_density",3
0,"FPWW0240059_14","2019-02-13T13:34:50+00:00","plant_density",0
0,"FPWW0240059_15","2019-02-13T13:35:14+00:00","plant_density",5
0,"FPWW0240059_16","2019-02-13T13:35:32+00:00","plant_density",5
0,"FPWW0240059_17","2019-02-13T13:35:36+00:00","plant_density",1
0,"FPWW0240059_18","2019-02-13T13:35:40+00:00","plant_density",2
0,"FPWW0240059_19","2019-02-13T13:35:59+00:00","plant_density",0
0,"FPWW0240059_20","2019-02-13T13:36:01+00:00","plant_density",1
0,"FPWW0240059_1","2019-02-13T13:31:58+00:00","plant_density",6
0,"FPWW0240058_2","2019-02-13T13:37:14+00:00","plant_density",3
0,"FPWW0240058_3","2019-02-13T13:37:23+00:00","plant_density",1
0,"FPWW0240058_4","2019-02-13T13:37:58+00:00","plant_density",5
0,"FPWW0240058_5","2019-02-13T13:38:08+00:00","plant_density",3
0,"FPWW0240058_6","2019-02-13T13:38:16+00:00","plant_density",2
0,"FPWW0240058_7","2019-02-13T13:38:22+00:00","plant_density",1
0,"FPWW0240058_8","2019-02-13T13:38:37+00:00","plant_density",3
0,"FPWW0240058_9","2019-02-13T13:38:52+00:00","plant_density",4
0,"FPWW0240058_10","2019-02-13T13:39:00+00:00","plant_density",1
0,"FPWW0240058_11","2019-02-13T13:39:17+00:00","plant_density",3
0,"FPWW0240058_12","2019-02-13T13:39:49+00:00","plant_density",5
0,"FPWW0240058_13","2019-02-13T13:39:55+00:00","plant_density",0
0,"FPWW0240058_14","2019-02-13T13:40:02+00:00","plant_density",3
0,"FPWW0240058_15","2019-02-13T13:40:17+00:00","plant_density",3
0,"FPWW0240058_16","2019-02-13T13:40:46+00:00","plant_density",4
0,"FPWW0240058_17","2019-02-13T13:40:52+00:00","plant_density",2
0,"FPWW0240058_18","2019-02-13T13:40:58+00:00","plant_density",1
0,"FPWW0240058_19","2019-02-13T13:41:13+00:00","plant_density",3
0,"FPWW0240058_20","2019-02-13T13:41:19+00:00","plant_density",2
0,"FPWW0240058_1","2019-02-13T13:37:04+00:00","plant_density",6
0,"FPWW0240057_2","2019-02-13T13:42:39+00:00","plant_density",1
0,"FPWW0240057_3","2019-02-13T13:42:44+00:00","plant_density",2
0,"FPWW0240057_4","2019-02-13T13:42:53+00:00","plant_density",4
0,"FPWW0240057_5","2019-02-13T13:42:59+00:00","plant_density",1
0,"FPWW0240057_6","2019-02-13T13:43:07+00:00","plant_density",3
0,"FPWW0240057_7","2019-02-13T13:43:19+00:00","plant_density",2
0,"FPWW0240057_8","2019-02-13T13:43:29+00:00","plant_density",3
0,"FPWW0240057_9","2019-02-13T13:43:47+00:00","plant_density",5
0,"FPWW0240057_10","2019-02-13T13:43:57+00:00","plant_density",2
0,"FPWW0240057_11","2019-02-13T13:44:15+00:00","plant_density",0
0,"FPWW0240057_12","2019-02-13T13:44:23+00:00","plant_density",2
0,"FPWW0240057_13","2019-02-13T13:44:37+00:00","plant_density",4
0,"FPWW0240057_14","2019-02-13T13:45:08+00:00","plant_density",2
0,"FPWW0240057_15","2019-02-13T13:45:15+00:00","plant_density",1
0,"FPWW0240057_16","2019-02-13T13:45:25+00:00","plant_density",2
0,"FPWW0240057_17","2019-02-13T13:45:49+00:00","plant_density",3
0,"FPWW0240057_18","2019-02-13T13:45:57+00:00","plant_density",4
0,"FPWW0240057_19","2019-02-13T13:46:07+00:00","plant_density",3
0,"FPWW0240057_20","2019-02-13T13:46:11+00:00","plant_density",1
0,"FPWW0240057_1","2019-02-13T13:42:04+00:00","plant_density",5
0,"FPWW0240056_2","2019-02-13T13:48:56+00:00","plant_density",3
0,"FPWW0240056_3","2019-02-13T13:49:06+00:00","plant_density",2
0,"FPWW0240056_4","2019-02-13T13:49:11+00:00","plant_density",2
0,"FPWW0240056_5","2019-02-13T13:49:18+00:00","plant_density",0
0,"FPWW0240056_6","2019-02-13T13:49:50+00:00","plant_density",4
0,"FPWW0240056_7","2019-02-13T13:50:05+00:00","plant_density",3
0,"FPWW0240056_8","2019-02-13T13:50:21+00:00","plant_density",3
0,"FPWW0240056_9","2019-02-13T13:50:37+00:00","plant_density",1
0,"FPWW0240056_10","2019-02-13T13:50:42+00:00","plant_density",0
0,"FPWW0240056_11","2019-02-13T13:51:04+00:00","plant_density",4
0,"FPWW0240056_12","2019-02-13T13:51:29+00:00","plant_density",5
0,"FPWW0240056_13","2019-02-13T13:51:57+00:00","plant_density",5
0,"FPWW0240056_14","2019-02-13T13:52:21+00:00","plant_density",4
0,"FPWW0240056_15","2019-02-13T13:52:32+00:00","plant_density",3
0,"FPWW0240056_16","2019-02-13T13:52:50+00:00","plant_density",4
0,"FPWW0240056_17","2019-02-13T13:52:56+00:00","plant_density",0
0,"FPWW0240056_18","2019-02-13T13:53:01+00:00","plant_density",2
0,"FPWW0240056_19","2019-02-13T13:53:07+00:00","plant_density",1
0,"FPWW0240056_20","2019-02-13T13:53:25+00:00","plant_density",4
0,"FPWW0240056_1","2019-02-13T13:48:43+00:00","plant_density",6
0,"FPWW0240055_2","2019-02-13T13:54:36+00:00","plant_density",2
0,"FPWW0240055_3","2019-02-13T13:54:41+00:00","plant_density",0
0,"FPWW0240055_4","2019-02-13T13:54:50+00:00","plant_density",3
0,"FPWW0240055_5","2019-02-13T13:55:01+00:00","plant_density",4
0,"FPWW0240055_6","2019-02-13T13:55:09+00:00","plant_density",2
0,"FPWW0240055_7","2019-02-13T13:55:30+00:00","plant_density",1
0,"FPWW0240055_8","2019-02-13T13:55:39+00:00","plant_density",3
0,"FPWW0240055_9","2019-02-13T13:55:57+00:00","plant_density",3
0,"FPWW0240055_10","2019-02-13T13:56:08+00:00","plant_density",3
0,"FPWW0240055_11","2019-02-13T13:56:30+00:00","plant_density",3
0,"FPWW0240055_12","2019-02-13T13:56:40+00:00","plant_density",1
0,"FPWW0240055_13","2019-02-13T13:56:49+00:00","plant_density",2
0,"FPWW0240055_14","2019-02-13T13:56:51+00:00","plant_density",2
0,"FPWW0240055_15","2019-02-13T13:56:55+00:00","plant_density",0
0,"FPWW0240055_16","2019-02-13T13:57:02+00:00","plant_density",3
0,"FPWW0240055_17","2019-02-13T13:57:21+00:00","plant_density",4
0,"FPWW0240055_18","2019-02-13T13:57:30+00:00","plant_density",2
0,"FPWW0240055_19","2019-02-13T13:57:33+00:00","plant_density",0
0,"FPWW0240055_20","2019-02-13T13:57:38+00:00","plant_density",0
0,"FPWW0240055_1","2019-02-13T13:54:31+00:00","plant_density",6
0,"FPWW0240049_2","2019-02-13T12:51:46+00:00","plant_density",5
0,"FPWW0240049_3","2019-02-13T12:51:57+00:00","plant_density",2
0,"FPWW0240049_4","2019-02-13T12:52:04+00:00","plant_density",2
0,"FPWW0240049_5","2019-02-13T12:52:24+00:00","plant_density",6
0,"FPWW0240049_6","2019-02-13T12:52:38+00:00","plant_density",2
0,"FPWW0240049_7","2019-02-13T12:53:23+00:00","plant_density",4
0,"FPWW0240049_8","2019-02-13T12:53:36+00:00","plant_density",1
0,"FPWW0240049_9","2019-02-13T12:53:43+00:00","plant_density",1
0,"FPWW0240049_10","2019-02-13T12:54:04+00:00","plant_density",4
0,"FPWW0240049_11","2019-02-13T12:54:12+00:00","plant_density",1
0,"FPWW0240049_12","2019-02-13T12:54:32+00:00","plant_density",4
0,"FPWW0240049_13","2019-02-13T12:54:39+00:00","plant_density",1
0,"FPWW0240049_14","2019-02-13T12:54:46+00:00","plant_density",1
0,"FPWW0240049_15","2019-02-13T12:54:58+00:00","plant_density",4
0,"FPWW0240049_16","2019-02-13T12:55:09+00:00","plant_density",2
0,"FPWW0240049_17","2019-02-13T12:55:20+00:00","plant_density",3
0,"FPWW0240049_18","2019-02-13T12:55:43+00:00","plant_density",3
0,"FPWW0240049_19","2019-02-13T12:55:51+00:00","plant_density",1
0,"FPWW0240049_20","2019-02-13T12:56:01+00:00","plant_density",3
0,"FPWW0240049_1","2019-02-13T12:51:11+00:00","plant_density",1
0,"FPWW0240050_2","2019-02-13T12:56:54+00:00","plant_density",1
0,"FPWW0240050_3","2019-02-13T12:57:05+00:00","plant_density",2
0,"FPWW0240050_4","2019-02-13T12:57:19+00:00","plant_density",3
0,"FPWW0240050_5","2019-02-13T12:57:36+00:00","plant_density",2
0,"FPWW0240050_6","2019-02-13T12:57:45+00:00","plant_density",1
0,"FPWW0240050_7","2019-02-13T12:57:52+00:00","plant_density",1
0,"FPWW0240050_8","2019-02-13T12:57:59+00:00","plant_density",2
0,"FPWW0240050_9","2019-02-13T12:58:12+00:00","plant_density",1
0,"FPWW0240050_10","2019-02-13T12:58:33+00:00","plant_density",4
0,"FPWW0240050_11","2019-02-13T12:58:54+00:00","plant_density",3
0,"FPWW0240050_12","2019-02-13T12:59:04+00:00","plant_density",1
0,"FPWW0240050_13","2019-02-13T12:59:25+00:00","plant_density",4
0,"FPWW0240050_14","2019-02-13T12:59:30+00:00","plant_density",0
0,"FPWW0240050_15","2019-02-13T13:00:02+00:00","plant_density",1
0,"FPWW0240050_16","2019-02-13T13:00:37+00:00","plant_density",3
0,"FPWW0240050_17","2019-02-13T13:00:43+00:00","plant_density",1
0,"FPWW0240050_18","2019-02-13T13:00:49+00:00","plant_density",1
0,"FPWW0240050_19","2019-02-13T13:01:00+00:00","plant_density",3
0,"FPWW0240050_20","2019-02-13T13:01:11+00:00","plant_density",3
0,"FPWW0240050_1","2019-02-13T12:56:41+00:00","plant_density",4
0,"FPWW0240051_2","2019-02-13T13:02:43+00:00","plant_density",7
0,"FPWW0240051_3","2019-02-13T13:03:02+00:00","plant_density",3
0,"FPWW0240051_4","2019-02-13T13:03:20+00:00","plant_density",3
0,"FPWW0240051_5","2019-02-13T13:03:31+00:00","plant_density",3
0,"FPWW0240051_6","2019-02-13T13:03:42+00:00","plant_density",1
0,"FPWW0240051_7","2019-02-13T13:03:50+00:00","plant_density",1
0,"FPWW0240051_8","2019-02-13T13:03:55+00:00","plant_density",1
0,"FPWW0240051_9","2019-02-13T13:04:51+00:00","plant_density",6
0,"FPWW0240051_10","2019-02-13T13:05:03+00:00","plant_density",1
0,"FPWW0240051_11","2019-02-13T13:05:22+00:00","plant_density",4
0,"FPWW0240051_12","2019-02-13T13:05:40+00:00","plant_density",4
0,"FPWW0240051_13","2019-02-13T13:05:57+00:00","plant_density",1
0,"FPWW0240051_14","2019-02-13T13:06:12+00:00","plant_density",4
0,"FPWW0240051_15","2019-02-13T13:06:27+00:00","plant_density",3
0,"FPWW0240051_16","2019-02-13T13:06:46+00:00","plant_density",3
0,"FPWW0240051_17","2019-02-13T13:06:55+00:00","plant_density",2
0,"FPWW0240051_18","2019-02-13T13:07:29+00:00","plant_density",6
0,"FPWW0240051_19","2019-02-13T13:07:38+00:00","plant_density",2
0,"FPWW0240051_20","2019-02-13T13:07:43+00:00","plant_density",1
0,"FPWW0240051_1","2019-02-13T13:02:06+00:00","plant_density",3
0,"FPWW0240052_2","2019-02-13T13:09:22+00:00","plant_density",2
0,"FPWW0240052_3","2019-02-13T13:09:40+00:00","plant_density",7
0,"FPWW0240052_4","2019-02-13T13:09:50+00:00","plant_density",2
0,"FPWW0240052_5","2019-02-13T13:09:59+00:00","plant_density",3
0,"FPWW0240052_6","2019-02-13T13:10:31+00:00","plant_density",5
0,"FPWW0240052_7","2019-02-13T13:10:41+00:00","plant_density",4
0,"FPWW0240052_8","2019-02-13T13:10:54+00:00","plant_density",4
0,"FPWW0240052_9","2019-02-13T13:11:14+00:00","plant_density",4
0,"FPWW0240052_10","2019-02-13T13:11:55+00:00","plant_density",5
0,"FPWW0240052_11","2019-02-13T13:12:06+00:00","plant_density",4
0,"FPWW0240052_12","2019-02-13T13:12:23+00:00","plant_density",4
0,"FPWW0240052_13","2019-02-13T13:12:30+00:00","plant_density",2
0,"FPWW0240052_14","2019-02-13T13:12:40+00:00","plant_density",2
0,"FPWW0240052_15","2019-02-13T13:13:23+00:00","plant_density",5
0,"FPWW0240052_16","2019-02-13T13:13:35+00:00","plant_density",3
0,"FPWW0240052_17","2019-02-13T13:13:52+00:00","plant_density",5
0,"FPWW0240052_18","2019-02-13T13:13:59+00:00","plant_density",0
0,"FPWW0240052_19","2019-02-13T13:14:08+00:00","plant_density",3
0,"FPWW0240052_20","2019-02-13T13:14:14+00:00","plant_density",2
0,"FPWW0240052_1","2019-02-13T13:09:15+00:00","plant_density",3
0,"FPWW0240053_2","2019-02-13T13:15:10+00:00","plant_density",0
0,"FPWW0240053_3","2019-02-13T13:15:23+00:00","plant_density",4
0,"FPWW0240053_4","2019-02-13T13:15:54+00:00","plant_density",6
0,"FPWW0240053_5","2019-02-13T13:16:07+00:00","plant_density",2
0,"FPWW0240053_6","2019-02-13T13:16:24+00:00","plant_density",3
0,"FPWW0240053_7","2019-02-13T13:16:32+00:00","plant_density",1
0,"FPWW0240053_8","2019-02-13T13:16:51+00:00","plant_density",2
0,"FPWW0240053_9","2019-02-13T13:17:14+00:00","plant_density",4
0,"FPWW0240053_10","2019-02-13T13:17:30+00:00","plant_density",3
0,"FPWW0240053_11","2019-02-13T13:17:43+00:00","plant_density",3
0,"FPWW0240053_12","2019-02-13T13:17:55+00:00","plant_density",4
0,"FPWW0240053_13","2019-02-13T13:18:24+00:00","plant_density",4
0,"FPWW0240053_14","2019-02-13T13:18:29+00:00","plant_density",0
0,"FPWW0240053_15","2019-02-13T13:18:33+00:00","plant_density",0
0,"FPWW0240053_16","2019-02-13T13:18:38+00:00","plant_density",1
0,"FPWW0240053_17","2019-02-13T13:18:42+00:00","plant_density",1
0,"FPWW0240053_18","2019-02-13T13:19:11+00:00","plant_density",4
0,"FPWW0240053_19","2019-02-13T13:19:32+00:00","plant_density",2
0,"FPWW0240053_20","2019-02-13T13:19:35+00:00","plant_density",3
0,"FPWW0240053_1","2019-02-13T13:15:05+00:00","plant_density",3
0,"FPWW0240054_2","2019-02-13T13:21:21+00:00","plant_density",1
0,"FPWW0240054_3","2019-02-13T13:21:34+00:00","plant_density",1
0,"FPWW0240054_4","2019-02-13T13:21:55+00:00","plant_density",2
0,"FPWW0240054_5","2019-02-13T13:22:02+00:00","plant_density",0
0,"FPWW0240054_6","2019-02-13T13:22:10+00:00","plant_density",2
0,"FPWW0240054_7","2019-02-13T13:22:23+00:00","plant_density",2
0,"FPWW0240054_8","2019-02-13T13:22:37+00:00","plant_density",4
0,"FPWW0240054_9","2019-02-13T13:22:43+00:00","plant_density",1
0,"FPWW0240054_10","2019-02-13T13:22:53+00:00","plant_density",3
0,"FPWW0240054_11","2019-02-13T13:22:59+00:00","plant_density",2
0,"FPWW0240054_12","2019-02-13T13:23:03+00:00","plant_density",1
0,"FPWW0240054_13","2019-02-13T13:23:11+00:00","plant_density",1
0,"FPWW0240054_14","2019-02-13T13:23:21+00:00","plant_density",2
0,"FPWW0240054_15","2019-02-13T13:23:28+00:00","plant_density",2
0,"FPWW0240054_16","2019-02-13T13:23:57+00:00","plant_density",3
0,"FPWW0240054_17","2019-02-13T13:24:17+00:00","plant_density",5
0,"FPWW0240054_18","2019-02-13T13:24:36+00:00","plant_density",1
0,"FPWW0240054_19","2019-02-13T13:24:42+00:00","plant_density",0
0,"FPWW0240054_20","2019-02-13T13:24:49+00:00","plant_density",2
0,"FPWW0240054_1","2019-02-13T13:20:58+00:00","plant_density",3
0,"FPWW0240048_2","2019-02-13T12:16:11+00:00","plant_density",4
0,"FPWW0240048_3","2019-02-13T12:16:19+00:00","plant_density",2
0,"FPWW0240048_4","2019-02-13T12:16:33+00:00","plant_density",2
0,"FPWW0240048_5","2019-02-13T12:17:16+00:00","plant_density",4
0,"FPWW0240048_6","2019-02-13T12:17:27+00:00","plant_density",2
0,"FPWW0240048_7","2019-02-13T12:17:37+00:00","plant_density",1
0,"FPWW0240048_8","2019-02-13T12:17:47+00:00","plant_density",2
0,"FPWW0240048_9","2019-02-13T12:17:53+00:00","plant_density",3
0,"FPWW0240048_10","2019-02-13T12:18:03+00:00","plant_density",5
0,"FPWW0240048_11","2019-02-13T12:18:19+00:00","plant_density",2
0,"FPWW0240048_12","2019-02-13T12:18:22+00:00","plant_density",1
0,"FPWW0240048_13","2019-02-13T12:18:42+00:00","plant_density",1
0,"FPWW0240048_14","2019-02-13T12:18:52+00:00","plant_density",1
0,"FPWW0240048_15","2019-02-13T12:19:05+00:00","plant_density",2
0,"FPWW0240048_16","2019-02-13T12:19:16+00:00","plant_density",2
0,"FPWW0240048_17","2019-02-13T12:19:29+00:00","plant_density",3
0,"FPWW0240048_18","2019-02-13T12:19:53+00:00","plant_density",3
0,"FPWW0240048_19","2019-02-13T12:20:14+00:00","plant_density",6
0,"FPWW0240072_2","2019-02-13T14:51:12+00:00","plant_density",1
0,"FPWW0240072_3","2019-02-13T14:51:20+00:00","plant_density",1
0,"FPWW0240072_4","2019-02-13T14:51:27+00:00","plant_density",2
0,"FPWW0240072_5","2019-02-13T14:51:41+00:00","plant_density",3
0,"FPWW0240072_6","2019-02-13T14:51:48+00:00","plant_density",3
0,"FPWW0240072_7","2019-02-13T14:51:56+00:00","plant_density",1
0,"FPWW0240072_8","2019-02-13T14:52:17+00:00","plant_density",3
0,"FPWW0240072_9","2019-02-13T14:52:28+00:00","plant_density",2
0,"FPWW0240072_10","2019-02-13T14:52:47+00:00","plant_density",3
0,"FPWW0240072_11","2019-02-13T14:52:54+00:00","plant_density",2
0,"FPWW0240072_12","2019-02-13T14:53:09+00:00","plant_density",3
0,"FPWW0240072_13","2019-02-13T14:53:26+00:00","plant_density",4
0,"FPWW0240072_14","2019-02-13T14:53:31+00:00","plant_density",0
0,"FPWW0240072_15","2019-02-13T14:53:37+00:00","plant_density",1
0,"FPWW0240072_16","2019-02-13T14:53:54+00:00","plant_density",4
0,"FPWW0240072_17","2019-02-13T14:54:00+00:00","plant_density",1
0,"FPWW0240072_18","2019-02-13T14:54:10+00:00","plant_density",3
0,"FPWW0240072_19","2019-02-13T14:54:22+00:00","plant_density",3
0,"FPWW0240072_20","2019-02-13T14:54:36+00:00","plant_density",2
0,"FPWW0240072_1","2019-02-13T14:51:07+00:00","plant_density",2
0,"FPWW0240071_2","2019-02-13T14:55:30+00:00","plant_density",4
0,"FPWW0240071_3","2019-02-13T14:55:37+00:00","plant_density",2
0,"FPWW0240071_4","2019-02-13T14:55:56+00:00","plant_density",5
0,"FPWW0240071_5","2019-02-13T14:56:06+00:00","plant_density",2
0,"FPWW0240071_6","2019-02-13T14:56:17+00:00","plant_density",3
0,"FPWW0240071_7","2019-02-13T14:56:31+00:00","plant_density",3
0,"FPWW0240071_8","2019-02-13T14:56:39+00:00","plant_density",2
0,"FPWW0240071_9","2019-02-13T14:56:50+00:00","plant_density",3
0,"FPWW0240071_10","2019-02-13T14:56:59+00:00","plant_density",2
0,"FPWW0240071_11","2019-02-13T14:57:11+00:00","plant_density",2
0,"FPWW0240071_12","2019-02-13T14:57:26+00:00","plant_density",3
0,"FPWW0240071_13","2019-02-13T14:57:44+00:00","plant_density",4
0,"FPWW0240071_14","2019-02-13T14:57:48+00:00","plant_density",1
0,"FPWW0240071_15","2019-02-13T14:57:51+00:00","plant_density",0
0,"FPWW0240071_16","2019-02-13T14:57:55+00:00","plant_density",1
0,"FPWW0240071_17","2019-02-13T14:58:14+00:00","plant_density",1
0,"FPWW0240071_18","2019-02-13T14:58:06+00:00","plant_density",2
0,"FPWW0240071_19","2019-02-13T14:58:23+00:00","plant_density",1
0,"FPWW0240071_20","2019-02-13T14:58:30+00:00","plant_density",1
0,"FPWW0240071_1","2019-02-13T14:55:20+00:00","plant_density",4
0,"FPWW0240070_2","2019-02-13T14:59:16+00:00","plant_density",1
0,"FPWW0240069_6","2019-02-13T15:03:41+00:00","plant_density",5
0,"FPWW0240069_7","2019-02-13T15:03:49+00:00","plant_density",2
0,"FPWW0240069_8","2019-02-13T15:03:53+00:00","plant_density",0
0,"FPWW0240069_9","2019-02-13T15:03:57+00:00","plant_density",0
0,"FPWW0240069_10","2019-02-13T15:04:01+00:00","plant_density",1
0,"FPWW0240069_11","2019-02-13T15:04:08+00:00","plant_density",3
0,"FPWW0240069_12","2019-02-13T15:04:26+00:00","plant_density",3
0,"FPWW0240069_13","2019-02-13T15:04:34+00:00","plant_density",2
0,"FPWW0240069_14","2019-02-13T15:04:40+00:00","plant_density",0
0,"FPWW0240069_15","2019-02-13T15:04:46+00:00","plant_density",4
0,"FPWW0240069_16","2019-02-13T15:04:52+00:00","plant_density",2
0,"FPWW0240069_17","2019-02-13T15:05:00+00:00","plant_density",5
0,"FPWW0240069_18","2019-02-13T15:05:05+00:00","plant_density",3
0,"FPWW0240069_19","2019-02-13T15:05:16+00:00","plant_density",6
0,"FPWW0240069_20","2019-02-13T15:05:29+00:00","plant_density",6
0,"FPWW0240069_1","2019-02-13T15:02:25+00:00","plant_density",2
0,"FPWW0240068_2","2019-02-13T15:06:06+00:00","plant_density",4
0,"FPWW0240068_3","2019-02-13T15:06:16+00:00","plant_density",3
0,"FPWW0240068_4","2019-02-13T15:06:26+00:00","plant_density",3
0,"FPWW0240068_5","2019-02-13T15:06:35+00:00","plant_density",1
0,"FPWW0240068_6","2019-02-13T15:06:42+00:00","plant_density",2
0,"FPWW0240068_7","2019-02-13T15:06:52+00:00","plant_density",3
0,"FPWW0240068_8","2019-02-13T15:07:05+00:00","plant_density",3
0,"FPWW0240068_9","2019-02-13T15:07:10+00:00","plant_density",0
0,"FPWW0240068_10","2019-02-13T15:07:14+00:00","plant_density",1
0,"FPWW0240068_11","2019-02-13T15:07:24+00:00","plant_density",3
0,"FPWW0240068_12","2019-02-13T15:07:28+00:00","plant_density",0
0,"FPWW0240068_13","2019-02-13T15:07:31+00:00","plant_density",1
0,"FPWW0240068_14","2019-02-13T15:07:35+00:00","plant_density",2
0,"FPWW0240068_15","2019-02-13T15:07:45+00:00","plant_density",2
0,"FPWW0240068_16","2019-02-13T15:07:49+00:00","plant_density",1
0,"FPWW0240068_17","2019-02-13T15:07:56+00:00","plant_density",2
0,"FPWW0240068_18","2019-02-13T15:08:00+00:00","plant_density",1
0,"FPWW0240068_19","2019-02-13T15:08:03+00:00","plant_density",1
0,"FPWW0240068_20","2019-02-13T15:08:13+00:00","plant_density",4
0,"FPWW0240068_1","2019-02-13T15:05:58+00:00","plant_density",1
0,"FPWW0240067_2","2019-02-13T15:08:50+00:00","plant_density",3
0,"FPWW0240067_3","2019-02-13T15:09:01+00:00","plant_density",3
0,"FPWW0240067_4","2019-02-13T15:09:09+00:00","plant_density",3
0,"FPWW0240067_5","2019-02-13T15:09:19+00:00","plant_density",4
0,"FPWW0240067_6","2019-02-13T15:09:24+00:00","plant_density",1
0,"FPWW0240067_7","2019-02-13T15:09:30+00:00","plant_density",3
0,"FPWW0240067_8","2019-02-13T15:09:37+00:00","plant_density",2
0,"FPWW0240067_9","2019-02-13T15:09:45+00:00","plant_density",8
0,"FPWW0240067_10","2019-02-13T15:09:47+00:00","plant_density",0
0,"FPWW0240067_11","2019-02-13T15:09:49+00:00","plant_density",0
0,"FPWW0240067_12","2019-02-13T15:09:54+00:00","plant_density",1
0,"FPWW0240067_13","2019-02-13T15:10:02+00:00","plant_density",4
0,"FPWW0240067_14","2019-02-13T15:10:09+00:00","plant_density",3
0,"FPWW0240067_15","2019-02-13T15:10:17+00:00","plant_density",2
0,"FPWW0240067_16","2019-02-13T15:10:20+00:00","plant_density",1
0,"FPWW0240067_17","2019-02-13T15:10:23+00:00","plant_density",0
0,"FPWW0240067_18","2019-02-13T15:10:26+00:00","plant_density",1
0,"FPWW0240067_19","2019-02-13T15:10:30+00:00","plant_density",3
0,"FPWW0240067_20","2019-02-13T15:10:35+00:00","plant_density",2
0,"FPWW0240067_1","2019-02-13T15:08:44+00:00","plant_density",1
0,"FPWW0240061_2","2019-02-13T14:24:30+00:00","plant_density",2
0,"FPWW0240061_3","2019-02-13T14:24:47+00:00","plant_density",1
0,"FPWW0240061_4","2019-02-13T14:25:06+00:00","plant_density",4
0,"FPWW0240061_5","2019-02-13T14:25:21+00:00","plant_density",2
0,"FPWW0240061_6","2019-02-13T14:25:28+00:00","plant_density",2
0,"FPWW0240061_7","2019-02-13T14:25:36+00:00","plant_density",4
0,"FPWW0240061_8","2019-02-13T14:25:49+00:00","plant_density",1
0,"FPWW0240061_9","2019-02-13T14:25:56+00:00","plant_density",1
0,"FPWW0240061_10","2019-02-13T14:26:18+00:00","plant_density",3
0,"FPWW0240061_11","2019-02-13T14:26:33+00:00","plant_density",5
0,"FPWW0240061_12","2019-02-13T14:26:45+00:00","plant_density",3
0,"FPWW0240061_13","2019-02-13T14:26:58+00:00","plant_density",3
0,"FPWW0240061_14","2019-02-13T14:27:05+00:00","plant_density",1
0,"FPWW0240061_15","2019-02-13T14:27:23+00:00","plant_density",4
0,"FPWW0240061_16","2019-02-13T14:27:30+00:00","plant_density",2
0,"FPWW0240061_17","2019-02-13T14:27:43+00:00","plant_density",2
0,"FPWW0240061_18","2019-02-13T14:27:49+00:00","plant_density",2
0,"FPWW0240061_19","2019-02-13T14:27:56+00:00","plant_density",1
0,"FPWW0240061_20","2019-02-13T14:28:05+00:00","plant_density",2
0,"FPWW0240061_1","2019-02-13T14:24:18+00:00","plant_density",2
0,"FPWW0240062_2","2019-02-13T14:28:37+00:00","plant_density",0
0,"FPWW0240062_3","2019-02-13T14:28:47+00:00","plant_density",2
0,"FPWW0240062_4","2019-02-13T14:29:13+00:00","plant_density",4
0,"FPWW0240062_5","2019-02-13T14:29:24+00:00","plant_density",4
0,"FPWW0240062_6","2019-02-13T14:29:39+00:00","plant_density",4
0,"FPWW0240062_7","2019-02-13T14:29:50+00:00","plant_density",3
0,"FPWW0240062_8","2019-02-13T14:29:58+00:00","plant_density",0
0,"FPWW0240062_9","2019-02-13T14:30:08+00:00","plant_density",4
0,"FPWW0240062_10","2019-02-13T14:30:19+00:00","plant_density",4
0,"FPWW0240062_11","2019-02-13T14:30:28+00:00","plant_density",3
0,"FPWW0240062_12","2019-02-13T14:30:41+00:00","plant_density",3
0,"FPWW0240062_13","2019-02-13T14:30:51+00:00","plant_density",3
0,"FPWW0240062_14","2019-02-13T14:31:16+00:00","plant_density",4
0,"FPWW0240062_15","2019-02-13T14:31:21+00:00","plant_density",1
0,"FPWW0240062_16","2019-02-13T14:31:27+00:00","plant_density",3
0,"FPWW0240062_17","2019-02-13T14:31:32+00:00","plant_density",3
0,"FPWW0240062_18","2019-02-13T14:31:42+00:00","plant_density",4
0,"FPWW0240062_19","2019-02-13T14:31:45+00:00","plant_density",0
0,"FPWW0240062_20","2019-02-13T14:31:52+00:00","plant_density",3
0,"FPWW0240062_1","2019-02-13T14:28:32+00:00","plant_density",3
0,"FPWW0240063_2","2019-02-13T14:32:25+00:00","plant_density",1
0,"FPWW0240063_3","2019-02-13T14:32:35+00:00","plant_density",3
0,"FPWW0240063_4","2019-02-13T14:32:48+00:00","plant_density",6
0,"FPWW0240063_5","2019-02-13T14:32:53+00:00","plant_density",1
0,"FPWW0240063_6","2019-02-13T14:33:06+00:00","plant_density",5
0,"FPWW0240063_7","2019-02-13T14:33:12+00:00","plant_density",4
0,"FPWW0240063_8","2019-02-13T14:33:19+00:00","plant_density",2
0,"FPWW0240063_9","2019-02-13T14:33:26+00:00","plant_density",0
0,"FPWW0240063_10","2019-02-13T14:33:39+00:00","plant_density",3
0,"FPWW0240063_11","2019-02-13T14:33:42+00:00","plant_density",0
0,"FPWW0240063_12","2019-02-13T14:33:50+00:00","plant_density",1
0,"FPWW0240063_13","2019-02-13T14:33:59+00:00","plant_density",4
0,"FPWW0240063_14","2019-02-13T14:34:04+00:00","plant_density",1
0,"FPWW0240063_15","2019-02-13T14:34:08+00:00","plant_density",1
0,"FPWW0240063_16","2019-02-13T14:34:17+00:00","plant_density",3
0,"FPWW0240063_17","2019-02-13T14:34:26+00:00","plant_density",4
0,"FPWW0240063_18","2019-02-13T14:34:30+00:00","plant_density",2
0,"FPWW0240063_19","2019-02-13T14:34:37+00:00","plant_density",1
0,"FPWW0240063_20","2019-02-13T14:34:44+00:00","plant_density",4
0,"FPWW0240063_1","2019-02-13T14:32:20+00:00","plant_density",1
0,"FPWW0240064_2","2019-02-13T14:35:22+00:00","plant_density",1
0,"FPWW0240064_3","2019-02-13T14:35:34+00:00","plant_density",4
0,"FPWW0240064_4","2019-02-13T14:35:41+00:00","plant_density",3
0,"FPWW0240064_5","2019-02-13T14:35:48+00:00","plant_density",1
0,"FPWW0240064_6","2019-02-13T14:36:04+00:00","plant_density",3
0,"FPWW0240064_7","2019-02-13T14:36:09+00:00","plant_density",2
0,"FPWW0240064_8","2019-02-13T14:36:16+00:00","plant_density",3
0,"FPWW0240064_9","2019-02-13T14:36:24+00:00","plant_density",2
0,"FPWW0240064_10","2019-02-13T14:36:41+00:00","plant_density",3
0,"FPWW0240064_11","2019-02-13T14:36:48+00:00","plant_density",2
0,"FPWW0240064_12","2019-02-13T14:36:55+00:00","plant_density",2
0,"FPWW0240064_13","2019-02-13T14:37:11+00:00","plant_density",1
0,"FPWW0240064_14","2019-02-13T14:37:20+00:00","plant_density",2
0,"FPWW0240064_15","2019-02-13T14:37:27+00:00","plant_density",1
0,"FPWW0240064_16","2019-02-13T14:37:35+00:00","plant_density",2
0,"FPWW0240064_17","2019-02-13T14:37:40+00:00","plant_density",2
0,"FPWW0240064_18","2019-02-13T14:37:46+00:00","plant_density",2
0,"FPWW0240064_19","2019-02-13T14:37:49+00:00","plant_density",1
0,"FPWW0240064_20","2019-02-13T14:37:52+00:00","plant_density",0
0,"FPWW0240064_1","2019-02-13T14:35:15+00:00","plant_density",1
0,"FPWW0240065_2","2019-02-13T14:38:44+00:00","plant_density",3
0,"FPWW0240065_3","2019-02-13T14:39:00+00:00","plant_density",2
0,"FPWW0240065_4","2019-02-13T14:39:08+00:00","plant_density",1
0,"FPWW0240065_5","2019-02-13T14:39:26+00:00","plant_density",4
0,"FPWW0240065_6","2019-02-13T14:39:30+00:00","plant_density",1
0,"FPWW0240065_7","2019-02-13T14:39:51+00:00","plant_density",2
0,"FPWW0240065_8","2019-02-13T14:40:07+00:00","plant_density",3
0,"FPWW0240065_9","2019-02-13T14:40:16+00:00","plant_density",2
0,"FPWW0240065_10","2019-02-13T14:40:29+00:00","plant_density",2
0,"FPWW0240065_11","2019-02-13T14:40:40+00:00","plant_density",2
0,"FPWW0240065_12","2019-02-13T14:40:42+00:00","plant_density",0
0,"FPWW0240065_13","2019-02-13T14:40:55+00:00","plant_density",2
0,"FPWW0240065_14","2019-02-13T14:41:07+00:00","plant_density",3
0,"FPWW0240065_15","2019-02-13T14:41:31+00:00","plant_density",3
0,"FPWW0240065_16","2019-02-13T14:41:36+00:00","plant_density",1
0,"FPWW0240065_17","2019-02-13T14:41:43+00:00","plant_density",2
0,"FPWW0240065_18","2019-02-13T14:41:55+00:00","plant_density",2
0,"FPWW0240065_19","2019-02-13T14:42:02+00:00","plant_density",2
0,"FPWW0240065_20","2019-02-13T14:42:11+00:00","plant_density",2
0,"FPWW0240065_1","2019-02-13T14:38:37+00:00","plant_density",7
0,"FPWW0240066_2","2019-02-13T14:43:42+00:00","plant_density",1
0,"FPWW0240066_3","2019-02-13T14:43:54+00:00","plant_density",4
0,"FPWW0240066_4","2019-02-13T14:43:58+00:00","plant_density",1
0,"FPWW0240066_5","2019-02-13T14:44:03+00:00","plant_density",2
0,"FPWW0240066_6","2019-02-13T14:44:07+00:00","plant_density",2
0,"FPWW0240066_7","2019-02-13T14:44:13+00:00","plant_density",1
0,"FPWW0240066_8","2019-02-13T14:44:24+00:00","plant_density",5
0,"FPWW0240066_9","2019-02-13T14:44:30+00:00","plant_density",1
0,"FPWW0240066_10","2019-02-13T14:44:51+00:00","plant_density",6
0,"FPWW0240066_11","2019-02-13T14:44:58+00:00","plant_density",2
0,"FPWW0240066_12","2019-02-13T14:45:28+00:00","plant_density",4
0,"FPWW0240066_13","2019-02-13T14:45:54+00:00","plant_density",2
0,"FPWW0240066_14","2019-02-13T14:46:07+00:00","plant_density",3
0,"FPWW0240066_15","2019-02-13T14:46:12+00:00","plant_density",2
0,"FPWW0240066_16","2019-02-13T14:46:15+00:00","plant_density",1
0,"FPWW0240066_17","2019-02-13T14:46:28+00:00","plant_density",5
0,"FPWW0240066_18","2019-02-13T14:46:40+00:00","plant_density",5
0,"FPWW0240066_19","2019-02-13T14:46:49+00:00","plant_density",2
0,"FPWW0240066_20","2019-02-13T14:46:51+00:00","plant_density",0
0,"FPWW0240066_1","2019-02-13T14:43:38+00:00","plant_density",1
0,"FPWW0240060_2","2019-02-13T13:28:26+00:00","plant_density",3
0,"FPWW0240060_3","2019-02-13T13:28:33+00:00","plant_density",3
0,"FPWW0240060_4","2019-02-13T13:28:42+00:00","plant_density",2
0,"FPWW0240060_5","2019-02-13T13:28:57+00:00","plant_density",4
0,"FPWW0240060_6","2019-02-13T13:29:05+00:00","plant_density",3
0,"FPWW0240060_7","2019-02-13T13:29:12+00:00","plant_density",2
0,"FPWW0240060_8","2019-02-13T13:29:18+00:00","plant_density",0
0,"FPWW0240060_9","2019-02-13T13:29:30+00:00","plant_density",5
0,"FPWW0240060_10","2019-02-13T13:29:36+00:00","plant_density",4
0,"FPWW0240060_11","2019-02-13T13:29:43+00:00","plant_density",2
0,"FPWW0240060_12","2019-02-13T13:29:48+00:00","plant_density",1
0,"FPWW0240060_13","2019-02-13T13:29:54+00:00","plant_density",1
0,"FPWW0240060_14","2019-02-13T13:30:03+00:00","plant_density",2
0,"FPWW0240060_15","2019-02-13T13:30:07+00:00","plant_density",1
0,"FPWW0240048_20","2019-02-13T12:20:26+00:00","plant_density",4
0,"FPWW0240048_1","2019-02-13T12:16:02+00:00","plant_density",5
0,"FPWW0240047_2","2019-02-13T12:21:43+00:00","plant_density",4
0,"FPWW0240047_3","2019-02-13T12:22:15+00:00","plant_density",5
0,"FPWW0240047_4","2019-02-13T12:22:42+00:00","plant_density",4
0,"FPWW0240047_5","2019-02-13T12:22:51+00:00","plant_density",1
0,"FPWW0240047_6","2019-02-13T12:23:04+00:00","plant_density",2
0,"FPWW0240047_7","2019-02-13T12:23:12+00:00","plant_density",1
0,"FPWW0240047_8","2019-02-13T12:23:58+00:00","plant_density",5
0,"FPWW0240047_9","2019-02-13T12:24:09+00:00","plant_density",3
0,"FPWW0240047_10","2019-02-13T12:24:17+00:00","plant_density",0
0,"FPWW0240047_11","2019-02-13T12:24:25+00:00","plant_density",2
0,"FPWW0240047_12","2019-02-13T12:24:39+00:00","plant_density",3
0,"FPWW0240047_13","2019-02-13T12:25:02+00:00","plant_density",2
0,"FPWW0240047_14","2019-02-13T12:25:06+00:00","plant_density",0
0,"FPWW0240047_15","2019-02-13T12:25:12+00:00","plant_density",1
0,"FPWW0240047_16","2019-02-13T12:25:46+00:00","plant_density",4
0,"FPWW0240047_17","2019-02-13T12:25:49+00:00","plant_density",0
0,"FPWW0240047_18","2019-02-13T12:26:13+00:00","plant_density",2
0,"FPWW0240047_19","2019-02-13T12:26:29+00:00","plant_density",3
0,"FPWW0240047_20","2019-02-13T12:26:35+00:00","plant_density",0
0,"FPWW0240047_1","2019-02-13T12:21:28+00:00","plant_density",3
0,"FPWW0240046_2","2019-02-13T12:28:18+00:00","plant_density",6
0,"FPWW0240046_3","2019-02-13T12:28:43+00:00","plant_density",5
0,"FPWW0240046_4","2019-02-13T12:28:50+00:00","plant_density",2
0,"FPWW0240046_5","2019-02-13T12:29:04+00:00","plant_density",1
0,"FPWW0240046_6","2019-02-13T12:29:27+00:00","plant_density",4
0,"FPWW0240046_7","2019-02-13T12:29:29+00:00","plant_density",0
0,"FPWW0240046_8","2019-02-13T12:29:36+00:00","plant_density",0
0,"FPWW0240046_9","2019-02-13T12:29:44+00:00","plant_density",1
0,"FPWW0240046_10","2019-02-13T12:29:57+00:00","plant_density",3
0,"FPWW0240046_11","2019-02-13T12:30:01+00:00","plant_density",0
0,"FPWW0240046_12","2019-02-13T12:30:30+00:00","plant_density",6
0,"FPWW0240046_13","2019-02-13T12:30:40+00:00","plant_density",2
0,"FPWW0240046_14","2019-02-13T12:30:44+00:00","plant_density",0
0,"FPWW0240046_15","2019-02-13T12:31:04+00:00","plant_density",5
0,"FPWW0240046_16","2019-02-13T12:31:33+00:00","plant_density",4
0,"FPWW0240046_17","2019-02-13T12:31:44+00:00","plant_density",1
0,"FPWW0240046_18","2019-02-13T12:31:59+00:00","plant_density",2
0,"FPWW0240046_19","2019-02-13T12:32:34+00:00","plant_density",6
0,"FPWW0240046_20","2019-02-13T12:32:55+00:00","plant_density",3
0,"FPWW0240046_1","2019-02-13T12:27:51+00:00","plant_density",4
0,"FPWW0240045_2","2019-02-13T12:34:21+00:00","plant_density",2
0,"FPWW0240045_3","2019-02-13T12:34:39+00:00","plant_density",3
0,"FPWW0240045_4","2019-02-13T12:34:54+00:00","plant_density",3
0,"FPWW0240045_5","2019-02-13T12:35:09+00:00","plant_density",3
0,"FPWW0240045_6","2019-02-13T12:35:22+00:00","plant_density",3
0,"FPWW0240045_7","2019-02-13T12:35:53+00:00","plant_density",2
0,"FPWW0240045_8","2019-02-13T12:36:13+00:00","plant_density",4
0,"FPWW0240045_9","2019-02-13T12:36:19+00:00","plant_density",2
0,"FPWW0240045_10","2019-02-13T12:36:36+00:00","plant_density",2
0,"FPWW0240045_11","2019-02-13T12:36:52+00:00","plant_density",3
0,"FPWW0240045_12","2019-02-13T12:37:00+00:00","plant_density",0
0,"FPWW0240045_13","2019-02-13T12:37:05+00:00","plant_density",1
0,"FPWW0240045_14","2019-02-13T12:37:15+00:00","plant_density",1
0,"FPWW0240045_15","2019-02-13T12:37:24+00:00","plant_density",1
0,"FPWW0240045_16","2019-02-13T12:38:05+00:00","plant_density",6
0,"FPWW0240045_17","2019-02-13T12:38:23+00:00","plant_density",2
0,"FPWW0240045_18","2019-02-13T12:38:33+00:00","plant_density",2
0,"FPWW0240045_19","2019-02-13T12:38:52+00:00","plant_density",4
0,"FPWW0240045_20","2019-02-13T12:39:07+00:00","plant_density",3
0,"FPWW0240045_1","2019-02-13T12:33:53+00:00","plant_density",2
0,"FPWW0240044_2","2019-02-13T12:40:11+00:00","plant_density",1
0,"FPWW0240044_3","2019-02-13T12:40:38+00:00","plant_density",2
0,"FPWW0240044_4","2019-02-13T12:40:53+00:00","plant_density",2
0,"FPWW0240044_5","2019-02-13T12:41:11+00:00","plant_density",4
0,"FPWW0240044_6","2019-02-13T12:41:23+00:00","plant_density",3
0,"FPWW0240044_7","2019-02-13T12:41:39+00:00","plant_density",4
0,"FPWW0240044_8","2019-02-13T12:41:46+00:00","plant_density",1
0,"FPWW0240044_9","2019-02-13T12:41:54+00:00","plant_density",0
0,"FPWW0240044_10","2019-02-13T12:41:59+00:00","plant_density",1
0,"FPWW0240044_11","2019-02-13T12:42:19+00:00","plant_density",0
0,"FPWW0240044_12","2019-02-13T12:42:27+00:00","plant_density",1
0,"FPWW0240044_13","2019-02-13T12:42:37+00:00","plant_density",1
0,"FPWW0240044_14","2019-02-13T12:42:47+00:00","plant_density",3
0,"FPWW0240044_15","2019-02-13T12:43:04+00:00","plant_density",4
0,"FPWW0240044_16","2019-02-13T12:43:18+00:00","plant_density",4
0,"FPWW0240044_17","2019-02-13T12:43:28+00:00","plant_density",1
0,"FPWW0240044_18","2019-02-13T12:43:50+00:00","plant_density",7
0,"FPWW0240044_19","2019-02-13T12:44:04+00:00","plant_density",3
0,"FPWW0240044_20","2019-02-13T12:44:13+00:00","plant_density",3
0,"FPWW0240044_1","2019-02-13T12:39:53+00:00","plant_density",4
0,"FPWW0240043_2","2019-02-13T12:45:19+00:00","plant_density",5
0,"FPWW0240043_3","2019-02-13T12:45:32+00:00","plant_density",3
0,"FPWW0240043_4","2019-02-13T12:45:59+00:00","plant_density",6
0,"FPWW0240043_5","2019-02-13T12:46:06+00:00","plant_density",1
0,"FPWW0240043_6","2019-02-13T12:46:12+00:00","plant_density",1
0,"FPWW0240043_7","2019-02-13T12:46:44+00:00","plant_density",4
0,"FPWW0240043_8","2019-02-13T12:46:55+00:00","plant_density",2
0,"FPWW0240043_9","2019-02-13T12:47:01+00:00","plant_density",2
0,"FPWW0240043_10","2019-02-13T12:47:08+00:00","plant_density",3
0,"FPWW0240043_11","2019-02-13T12:47:23+00:00","plant_density",0
0,"FPWW0240043_12","2019-02-13T12:47:28+00:00","plant_density",0
0,"FPWW0240043_13","2019-02-13T12:47:46+00:00","plant_density",4
0,"FPWW0240043_14","2019-02-13T12:47:51+00:00","plant_density",2
0,"FPWW0240043_15","2019-02-13T12:47:56+00:00","plant_density",0
0,"FPWW0240043_16","2019-02-13T12:48:07+00:00","plant_density",3
0,"FPWW0240043_17","2019-02-13T12:48:28+00:00","plant_density",7
0,"FPWW0240043_18","2019-02-13T12:48:58+00:00","plant_density",8
0,"FPWW0240043_19","2019-02-13T12:49:02+00:00","plant_density",0
0,"FPWW0240043_20","2019-02-13T12:49:13+00:00","plant_density",2
0,"FPWW0240043_1","2019-02-13T12:44:53+00:00","plant_density",1
0,"FPWW0240037_2","2019-02-13T09:11:31+00:00","plant_density",3
0,"FPWW0240037_3","2019-02-13T09:11:51+00:00","plant_density",3
0,"FPWW0240037_4","2019-02-13T10:18:10+00:00","plant_density",4
0,"FPWW0240037_5","2019-02-13T10:18:20+00:00","plant_density",1
0,"FPWW0240037_6","2019-02-13T10:18:56+00:00","plant_density",5
0,"FPWW0240037_7","2019-02-13T10:19:30+00:00","plant_density",4
0,"FPWW0240037_8","2019-02-13T10:20:38+00:00","plant_density",3
0,"FPWW0240037_9","2019-02-13T10:20:56+00:00","plant_density",3
0,"FPWW0240037_10","2019-02-13T10:21:26+00:00","plant_density",5
0,"FPWW0240037_11","2019-02-13T10:21:47+00:00","plant_density",3
0,"FPWW0240037_12","2019-02-13T10:22:06+00:00","plant_density",3
0,"FPWW0240037_13","2019-02-13T10:22:36+00:00","plant_density",3
0,"FPWW0240037_14","2019-02-13T10:22:45+00:00","plant_density",2
0,"FPWW0240037_15","2019-02-13T10:22:55+00:00","plant_density",2
0,"FPWW0240037_16","2019-02-13T10:23:11+00:00","plant_density",4
0,"FPWW0240037_17","2019-02-13T10:23:32+00:00","plant_density",5
0,"FPWW0240037_18","2019-02-13T10:23:58+00:00","plant_density",5
0,"FPWW0240037_19","2019-02-13T10:24:07+00:00","plant_density",4
0,"FPWW0240037_20","2019-02-13T10:24:21+00:00","plant_density",2
0,"FPWW0240037_1","2019-02-13T09:10:25+00:00","plant_density",4
0,"FPWW0240038_2","2019-02-13T10:25:38+00:00","plant_density",4
0,"FPWW0240038_3","2019-02-13T10:25:47+00:00","plant_density",1
0,"FPWW0240038_4","2019-02-13T10:26:00+00:00","plant_density",4
0,"FPWW0240038_5","2019-02-13T10:26:12+00:00","plant_density",3
0,"FPWW0240038_6","2019-02-13T10:26:19+00:00","plant_density",1
0,"FPWW0240038_7","2019-02-13T10:26:24+00:00","plant_density",1
0,"FPWW0240038_8","2019-02-13T10:26:50+00:00","plant_density",4
0,"FPWW0240038_9","2019-02-13T10:27:02+00:00","plant_density",3
0,"FPWW0240038_10","2019-02-13T10:27:18+00:00","plant_density",3
0,"FPWW0240038_11","2019-02-13T10:27:32+00:00","plant_density",3
0,"FPWW0240038_12","2019-02-13T10:27:53+00:00","plant_density",5
0,"FPWW0240038_13","2019-02-13T10:28:00+00:00","plant_density",0
0,"FPWW0240038_14","2019-02-13T10:28:09+00:00","plant_density",1
0,"FPWW0240038_15","2019-02-13T10:28:16+00:00","plant_density",2
0,"FPWW0240038_16","2019-02-13T10:28:26+00:00","plant_density",3
0,"FPWW0240038_17","2019-02-13T10:28:41+00:00","plant_density",4
0,"FPWW0240038_18","2019-02-13T10:28:51+00:00","plant_density",3
0,"FPWW0240038_19","2019-02-13T10:29:09+00:00","plant_density",2
0,"FPWW0240038_20","2019-02-13T10:29:19+00:00","plant_density",3
0,"FPWW0240038_1","2019-02-13T10:25:24+00:00","plant_density",6
0,"FPWW0240039_2","2019-02-13T10:30:05+00:00","plant_density",2
0,"FPWW0240039_3","2019-02-13T10:30:16+00:00","plant_density",5
0,"FPWW0240039_4","2019-02-13T10:30:28+00:00","plant_density",3
0,"FPWW0240039_5","2019-02-13T10:30:32+00:00","plant_density",0
0,"FPWW0240039_6","2019-02-13T10:30:41+00:00","plant_density",4
0,"FPWW0240039_7","2019-02-13T10:30:53+00:00","plant_density",4
0,"FPWW0240039_8","2019-02-13T10:31:08+00:00","plant_density",8
0,"FPWW0240039_9","2019-02-13T10:31:13+00:00","plant_density",2
0,"FPWW0240039_10","2019-02-13T10:31:18+00:00","plant_density",1
0,"FPWW0240039_11","2019-02-13T10:31:31+00:00","plant_density",2
0,"FPWW0240039_12","2019-02-13T10:31:40+00:00","plant_density",4
0,"FPWW0240039_13","2019-02-13T10:31:49+00:00","plant_density",2
0,"FPWW0240039_14","2019-02-13T10:32:06+00:00","plant_density",7
0,"FPWW0240039_15","2019-02-13T10:32:13+00:00","plant_density",3
0,"FPWW0240039_16","2019-02-13T10:32:23+00:00","plant_density",3
0,"FPWW0240039_17","2019-02-13T10:32:30+00:00","plant_density",3
0,"FPWW0240039_18","2019-02-13T10:32:40+00:00","plant_density",4
0,"FPWW0240039_19","2019-02-13T10:33:04+00:00","plant_density",2
0,"FPWW0240039_20","2019-02-13T10:33:14+00:00","plant_density",4
0,"FPWW0240039_1","2019-02-13T10:29:58+00:00","plant_density",0
0,"FPWW0240040_2","2019-02-13T10:36:51+00:00","plant_density",0
0,"FPWW0240040_3","2019-02-13T10:37:06+00:00","plant_density",3
0,"FPWW0240040_4","2019-02-13T10:37:31+00:00","plant_density",4
0,"FPWW0240040_5","2019-02-13T10:37:40+00:00","plant_density",2
0,"FPWW0240040_6","2019-02-13T10:37:46+00:00","plant_density",0
0,"FPWW0240040_7","2019-02-13T10:38:05+00:00","plant_density",2
0,"FPWW0240040_8","2019-02-13T10:38:11+00:00","plant_density",2
0,"FPWW0240040_9","2019-02-13T10:38:28+00:00","plant_density",6
0,"FPWW0240040_10","2019-02-13T10:38:34+00:00","plant_density",0
0,"FPWW0240040_11","2019-02-13T10:38:39+00:00","plant_density",1
0,"FPWW0240040_12","2019-02-13T10:38:56+00:00","plant_density",2
0,"FPWW0240040_13","2019-02-13T10:39:34+00:00","plant_density",7
0,"FPWW0240040_14","2019-02-13T10:39:44+00:00","plant_density",2
0,"FPWW0240040_15","2019-02-13T10:40:11+00:00","plant_density",5
0,"FPWW0240040_16","2019-02-13T10:40:25+00:00","plant_density",3
0,"FPWW0240040_17","2019-02-13T10:40:38+00:00","plant_density",3
0,"FPWW0240040_18","2019-02-13T10:40:50+00:00","plant_density",1
0,"FPWW0240040_19","2019-02-13T10:40:59+00:00","plant_density",0
0,"FPWW0240040_20","2019-02-13T10:41:11+00:00","plant_density",4
0,"FPWW0240040_1","2019-02-13T10:36:46+00:00","plant_density",4
0,"FPWW0240041_2","2019-02-13T10:43:02+00:00","plant_density",4
0,"FPWW0240041_3","2019-02-13T10:43:50+00:00","plant_density",3
0,"FPWW0240041_4","2019-02-13T10:44:00+00:00","plant_density",1
0,"FPWW0240041_5","2019-02-13T10:44:21+00:00","plant_density",5
0,"FPWW0240041_6","2019-02-13T10:44:40+00:00","plant_density",3
0,"FPWW0240041_7","2019-02-13T10:45:02+00:00","plant_density",3
0,"FPWW0240070_3","2019-02-13T14:59:26+00:00","plant_density",2
0,"FPWW0240070_4","2019-02-13T14:59:33+00:00","plant_density",1
0,"FPWW0240070_5","2019-02-13T14:59:39+00:00","plant_density",2
0,"FPWW0240070_6","2019-02-13T14:59:46+00:00","plant_density",3
0,"FPWW0240070_7","2019-02-13T14:59:54+00:00","plant_density",3
0,"FPWW0240070_8","2019-02-13T15:00:00+00:00","plant_density",2
0,"FPWW0240070_9","2019-02-13T15:00:19+00:00","plant_density",6
0,"FPWW0240070_10","2019-02-13T15:00:32+00:00","plant_density",2
0,"FPWW0240070_11","2019-02-13T15:00:41+00:00","plant_density",1
0,"FPWW0240070_12","2019-02-13T15:00:55+00:00","plant_density",3
0,"FPWW0240070_13","2019-02-13T15:01:00+00:00","plant_density",0
0,"FPWW0240070_14","2019-02-13T15:01:08+00:00","plant_density",5
0,"FPWW0240070_15","2019-02-13T15:01:13+00:00","plant_density",1
0,"FPWW0240070_16","2019-02-13T15:01:17+00:00","plant_density",2
0,"FPWW0240070_17","2019-02-13T15:01:25+00:00","plant_density",2
0,"FPWW0240070_18","2019-02-13T15:01:32+00:00","plant_density",3
0,"FPWW0240070_19","2019-02-13T15:01:40+00:00","plant_density",3
0,"FPWW0240070_20","2019-02-13T15:01:49+00:00","plant_density",1
0,"FPWW0240070_1","2019-02-13T14:59:11+00:00","plant_density",4
0,"FPWW0240069_2","2019-02-13T15:02:33+00:00","plant_density",4
0,"FPWW0240069_3","2019-02-13T15:02:56+00:00","plant_density",3
0,"FPWW0240069_4","2019-02-13T15:03:17+00:00","plant_density",6
0,"FPWW0240069_5","2019-02-13T15:03:28+00:00","plant_density",3
0,"FPWW0240041_8","2019-02-13T10:45:27+00:00","plant_density",4
0,"FPWW0240041_9","2019-02-13T10:46:13+00:00","plant_density",5
0,"FPWW0240041_10","2019-02-13T10:46:54+00:00","plant_density",4
0,"FPWW0240041_11","2019-02-13T10:47:04+00:00","plant_density",2
0,"FPWW0240041_12","2019-02-13T10:47:20+00:00","plant_density",2
0,"FPWW0240041_13","2019-02-13T10:47:34+00:00","plant_density",3
0,"FPWW0240041_14","2019-02-13T10:47:51+00:00","plant_density",1
0,"FPWW0240041_15","2019-02-13T10:48:05+00:00","plant_density",4
0,"FPWW0240041_16","2019-02-13T10:48:21+00:00","plant_density",4
0,"FPWW0240041_17","2019-02-13T10:48:43+00:00","plant_density",4
0,"FPWW0240041_18","2019-02-13T10:49:05+00:00","plant_density",4
0,"FPWW0240041_19","2019-02-13T10:49:19+00:00","plant_density",2
0,"FPWW0240041_20","2019-02-13T10:49:23+00:00","plant_density",1
0,"FPWW0240041_1","2019-02-13T10:42:34+00:00","plant_density",5
0,"FPWW0240042_2","2019-02-13T10:50:22+00:00","plant_density",5
0,"FPWW0240042_3","2019-02-13T10:50:30+00:00","plant_density",4
0,"FPWW0240042_4","2019-02-13T10:50:36+00:00","plant_density",2
0,"FPWW0240042_5","2019-02-13T10:50:41+00:00","plant_density",3
0,"FPWW0240042_6","2019-02-13T10:50:49+00:00","plant_density",3
0,"FPWW0240042_7","2019-02-13T10:50:54+00:00","plant_density",2
0,"FPWW0240042_8","2019-02-13T10:51:27+00:00","plant_density",3
0,"FPWW0240042_9","2019-02-13T10:51:33+00:00","plant_density",2
0,"FPWW0240042_10","2019-02-13T10:51:42+00:00","plant_density",2
0,"FPWW0240042_11","2019-02-13T10:51:52+00:00","plant_density",4
0,"FPWW0240042_12","2019-02-13T10:52:02+00:00","plant_density",3
0,"FPWW0240042_13","2019-02-13T10:52:13+00:00","plant_density",2
0,"FPWW0240042_14","2019-02-13T10:52:20+00:00","plant_density",3
0,"FPWW0240042_15","2019-02-13T10:52:30+00:00","plant_density",3
0,"FPWW0240042_16","2019-02-13T10:52:41+00:00","plant_density",4
0,"FPWW0240042_17","2019-02-13T10:52:49+00:00","plant_density",1
0,"FPWW0240042_18","2019-02-13T10:53:04+00:00","plant_density",0
0,"FPWW0240042_19","2019-02-13T10:53:08+00:00","plant_density",4
0,"FPWW0240042_20","2019-02-13T10:53:12+00:00","plant_density",3
0,"FPWW0240042_1","2019-02-13T10:50:14+00:00","plant_density",3
